Chronological data from XRONOS in R • xronos
…
material

species

You can combine any number of parameters, and each parameter can take either a single value or a vector of values that should be included in the results.

For example, to get all radiocarbon dates from Switzerland on either charcoal or bone:

chron_ch <- chron_data(country = "Switzerland", material = c("charcoal", "bone"))

The results of the query are returned as a table of records (a tibble if tibble is installed, otherwise a data frame):

chron_ch
#> # A tibble: 558 × 21
#>       id labnr  refer…¹ sourc…²    bp   std cal_bp cal_std delta…³ site  site_…⁴
#>    <int> <chr>  <lgl>   <chr>   <int> <int>  <int>   <int>   <dbl> <chr> <chr>  
#>  1 23465 ETH-2… NA      radon    5050    60   5798     148      NA Dorn… Dornac…
#>  2 86489 ETH-9… NA      calpal   3885    80   4303     219       0 Aesch Aesch  
#>  3 86500 ETH-1… NA      calpal   3845    60   4258     166       0 Alle… Alle -…
#>  4 86521 ETH-9… NA      calpal   4490    75   5134     243       0 Arle… Arlesh…
#>  5 86561 B-3395 NA      calpal   3835    60   4243     172       0 Bavo… Bavois…
#>  6 86564 B-3610 NA      calpal   2960    70   3122     208       0 Bavo… Bavois…
#>  7 86572 Ua-20… NA      calpal   2610    45   2741     194       0 Birc… Birch,…
#>  8 86573 ETH-2… NA      calpal   3505    50   3773     137       0 Birm… Birmen…
#>  9 86579 ETH-3… NA      calpal   3305    50   3525     132       0 Birm… Birmen…
#> 10 86581 ETH-3… NA      calpal   3285    50   3505     121       0 Birm… Birmen…
#> # … with 548 more rows, 10 more variables: feature <chr>, periods <list>,
#> #   typochronological_units <list>, ecochronological_units <list>,
#> #   material <chr>, species <chr>, lat <chr>, lng <chr>, country <chr>,
#> #   site_type <chr>, and abbreviated variable names ¹​reference,
#> #   ²​source_database, ³​delta_c13, ⁴​site_phase
…
Map chronological data

Wherever possible, XRONOS includes the geographic location of chrons, stored as latitude and longitude coordinates. The convenience function chron_as_sf() converts these coordinates into a ‘simple features’ geometry column for use with the sf package:

library(sf)
#> Linking to GEOS 3.8.0, GDAL 3.0.4, PROJ 6.3.1; sf_use_s2() is TRUE

chron_as_sf(chron_ch)
#> Warning: 10 rows with missing or invalid coordinates were removed.
#> Simple feature collection with 548 features and 21 fields
#> Geometry type: POINT
#> Dimension:     XY
#> Bounding box:  xmin: 4.0911 ymin: 46.0211 xmax: 10.3818 ymax: 47.75
#> Geodetic CRS:  WGS 84
#> # A tibble: 548 × 22
#>       id labnr  refer…¹ sourc…²    bp   std cal_bp cal_std delta…³ site  site_…⁴
#>  * <int> <chr>  <lgl>   <chr>   <int> <int>  <int>   <int>   <dbl> <chr> <chr>  
#>  1 23465 ETH-2… NA      radon    5050    60   5798     148      NA Dorn… Dornac…
#>  2 86489 ETH-9… NA      calpal   3885    80   4303     219       0 Aesch Aesch  
#>  3 86500 ETH-1… NA      calpal   3845    60   4258     166       0 Alle… Alle -…
#>  4 86521 ETH-9… NA      calpal   4490    75   5134     243       0 Arle… Arlesh…
#>  5 86561 B-3395 NA      calpal   3835    60   4243     172       0 Bavo… Bavois…
#>  6 86564 B-3610 NA      calpal   2960    70   3122     208       0 Bavo… Bavois…
#>  7 86572 Ua-20… NA      calpal   2610    45   2741     194       0 Birc… Birch,…
#>  8 86573 ETH-2… NA      calpal   3505    50   3773     137       0 Birm… Birmen…
#>  9 86579 ETH-3… NA      calpal   3305    50   3525     132       0 Birm… Birmen…
#> 10 86581 ETH-3… NA      calpal   3285    50   3505     121       0 Birm… Birmen…
#> # … with 538 more rows, 11 more variables: feature <chr>, periods <list>,
#> #   typochronological_units <list>, ecochronological_units <list>,
#> #   material <chr>, species <chr>, lat <chr>, lng <chr>, country <chr>,
#> #   site_type <chr>, geometry <POINT [°]>, and abbreviated variable names
#> #   ¹​reference, ²​source_database, ³​delta_c13, ⁴​site_phase

The result is an sf object, which includes the original data, plus a geometry column representing the point coordinates and information on the coordinate reference system used.

Change the crs parameter to transform the geometries into another coordinate reference system. This can be anything understood by sf::st_crs()). For example, to use the Swiss National Grid (EPSG:2056):

chron_as_sf(chron_ch, crs = 2056)
#> Warning: 10 rows with missing or invalid coordinates were removed.
#> Simple feature collection with 548 features and 21 fields
#> Geometry type: POINT
#> Dimension:     XY
#> Bounding box:  xmin: 2341455 ymin: 1096664 xmax: 2825378 ymax: 1289561
#> Projected CRS: CH1903+ / LV95
#> # A tibble: 548 × 22
#>       id labnr  refer…¹ sourc…²    bp   std cal_bp cal_std delta…³ site  site_…⁴
#>  * <int> <chr>  <lgl>   <chr>   <int> <int>  <int>   <int>   <dbl> <chr> <chr>  
#>  1 23465 ETH-2… NA      radon    5050    60   5798     148      NA Dorn… Dornac…
#>  2 86489 ETH-9… NA      calpal   3885    80   4303     219       0 Aesch Aesch  
#>  3 86500 ETH-1… NA      calpal   3845    60   4258     166       0 Alle… Alle -…
#>  4 86521 ETH-9… NA      calpal   4490    75   5134     243       0 Arle… Arlesh…
#>  5 86561 B-3395 NA      calpal   3835    60   4243     172       0 Bavo… Bavois…
#>  6 86564 B-3610 NA      calpal   2960    70   3122     208       0 Bavo… Bavois…
#>  7 86572 Ua-20… NA      calpal   2610    45   2741     194       0 Birc… Birch,…
#>  8 86573 ETH-2… NA      calpal   3505    50   3773     137       0 Birm… Birmen…
#>  9 86579 ETH-3… NA      calpal   3305    50   3525     132       0 Birm… Birmen…
#> 10 86581 ETH-3… NA      calpal   3285    50   3505     121       0 Birm… Birmen…
#> # … with 538 more rows, 11 more variables: feature <chr>, periods <list>,
#> #   typochronological_units <list>, ecochronological_units <list>,
#> #   material <chr>, species <chr>, lat <chr>, lng <chr>, country <chr>,
#> #   site_type <chr>, geometry <POINT [m]>, and abbreviated variable names
#> #   ¹​reference, ²​source_database, ³​delta_c13, ⁴​site_phase
…
